[
    {
        "id": 16,
        "key": "intake-process-form",
        "title": "Intake Process Form",
        "generatedBy": "",
        "generatedDateTime": "",
        "isSelected": false,
        "isRequired": false,
        "isInProgress": false,
        "isGenerated": false,
        "access": [
            "SCRNW",
            "apcs",
            "field",
            "Intake Worker",
            "Court Liaison Worker"
        ]
    },
    {
        "id": 3,
        "key": "Preintake-Appointment-Letter",
        "title": "Intake Appointment Letter with Delinquency Process Compliant",
        "generatedBy": "",
        "generatedDateTime": "",
        "isSelected": false,
        "isRequired": false,
        "isInProgress": false,
        "isGenerated": false,
        "access": [
            "SCRNW",
            "apcs",
            "field",
            "Intake Worker",
            "Court Liaison Worker"
        ]
    },
    {
        "id": 5,
        "key": "Preintake-Complaint-Notification-Letter",
        "title": "Intake Complaint Notification Letter",
        "generatedBy": "",
        "generatedDateTime": "",
        "isSelected": false,
        "isRequired": false,
        "isInProgress": false,
        "isGenerated": false,
        "access": [
            "SCRNW",
            "apcs",
            "field",
            "Intake Worker",
            "Court Liaison Worker"
        ]
    },
    {
        "id": 4,
        "key": "Intake Decision Sheet",
        "title": "Intake Decision Sheet",
        "generatedBy": "",
        "generatedDateTime": "",
        "isSelected": false,
        "isRequired": true,
        "isInProgress": false,
        "isGenerated": false,
        "access": [
            "apcs",
            "field",
            "Intake Worker",
            "Court Liaison Worker"
        ]
    },
    {
        "id": 2,
        "key": "Intake Formal Action Notification Letter",
        "title": "Intake Formal Action Notification Letter",
        "generatedBy": "",
        "generatedDateTime": "",
        "isSelected": false,
        "isRequired": true,
        "isInProgress": false,
        "isGenerated": false,
        "access": [
            "apcs",
            "field",
            "Intake Worker",
            "Court Liaison Worker"
        ]
    },
    {
        "id": 1,
        "key": "Notice of Pre Intake Letter",
        "title": "Notice of Pre Intake Letter",
        "generatedBy": "",
        "generatedDateTime": "",
        "isSelected": false,
        "isRequired": false,
        "isInProgress": false,
        "isGenerated": false,
        "access": []
    },
    {
        "id": 6,
        "key": "Preintake-Victim-Impact-Letter",
        "title": "Victim Impact Statement",
        "generatedBy": "",
        "generatedDateTime": "",
        "isSelected": false,
        "isRequired": false,
        "isInProgress": false,
        "isGenerated": false,
        "access": [
            "apcs",
            "field"
        ]
    },
    {
        "id": 7,
        "key": "Post-Disposition-Service-Referral-Letter",
        "title": "Post-Disposition-Service-Referral-Letter",
        "generatedBy": "",
        "generatedDateTime": "",
        "isSelected": false,
        "isRequired": false,
        "isInProgress": false,
        "isGenerated": false,
        "access": []
    },
    {
        "id": 8,
        "key": "Post-Disposition-TSP-Certofimp-Letter",
        "title": "Post-Disposition-TSP-Certofimp-Letter",
        "generatedBy": "",
        "generatedDateTime": "",
        "isSelected": false,
        "isRequired": false,
        "isInProgress": false,
        "isGenerated": false,
        "access": []
    },
    {
        "id": 10,
        "key": "Intake-Formal-Action-Notification-Letter",
        "title": "Intake-Formal-Action-Notification-Letter",
        "generatedBy": "",
        "generatedDateTime": "",
        "isSelected": false,
        "isRequired": false,
        "isInProgress": false,
        "isGenerated": false,
        "access": []
    },
    {
        "id": 11,
        "key": "Notice-of-Intake-Decision",
        "title": "Notice-of-Intake-Decision",
        "generatedBy": "",
        "generatedDateTime": "",
        "isSelected": false,
        "isRequired": false,
        "isInProgress": false,
        "isGenerated": false,
        "access": []
    },
    {
        "id": 12,
        "key": "Office-Visit-Appointment-Letter",
        "title": "Office Visit Appointment Letter",
        "generatedBy": "",
        "generatedDateTime": "",
        "isSelected": false,
        "isRequired": false,
        "isInProgress": false,
        "isGenerated": false,
        "access": [
            "apcs",
            "field"
        ]
    },
    {
        "id": 13,
        "key": "Youth-Orientation-Form",
        "title": "Youth-Orientation-Form",
        "generatedBy": "",
        "generatedDateTime": "",
        "isSelected": false,
        "isRequired": false,
        "isInProgress": false,
        "isGenerated": false,
        "access": [
            "field",
            "apcs"
        ]
    },
    {
        "id": 17,
        "key": "authorization_information",
        "title": "Authorization for Release of Information ",
        "generatedBy": "",
        "generatedDateTime": "",
        "isSelected": false,
        "isRequired": false,
        "isInProgress": false,
        "isGenerated": false,
        "access": [
            "field"
        ]
    },
    {
        "id": 18,
        "key": "educational_service_record",
        "title": "Educational Service Record ",
        "generatedBy": "",
        "generatedDateTime": "",
        "isSelected": false,
        "isRequired": false,
        "isInProgress": false,
        "isGenerated": false,
        "access": [
            "field"
        ]
    },
    {
        "id": 14,
        "key": "Youth-Face-Sheet",
        "title": "Youth-Face-Sheet",
        "generatedBy": "",
        "generatedDateTime": "",
        "isSelected": false,
        "isRequired": false,
        "isInProgress": false,
        "isGenerated": false,
        "access": [
            "field"
        ]
    },
    {
        "id": 15,
        "key": "Waiver",
        "title": "Waiver",
        "generatedBy": "",
        "generatedDateTime": "",
        "isSelected": false,
        "isRequired": false,
        "isInProgress": false,
        "isGenerated": false,
        "access": []
    },
    {
        "id": 19,
        "key": "group",
        "title": "Prison Rape Elimination Act",
        "generatedBy": "",
        "generatedDateTime": "",
        "isSelected": false,
        "isRequired": false,
        "isInProgress": false,
        "isGenerated": false,
        "access": [
            "field"
        ],
        "hasGroup": true,
        "documents": [
            {
                "id": 191,
                "key": "Appendix-1.PREA-Mandated-Disclosure",
                "title": "Appendix-1.PREA-Mandated-Disclosure",
                "generatedBy": "",
                "generatedDateTime": "",
                "isSelected": false,
                "isRequired": false,
                "isInProgress": false,
                "isGenerated": false,
                "documentpath":"https://s3-cjams.s3.us-east-1.amazonaws.com/201800510910%2F1539711822853_PREA-Mandated-Disclosure.pdf",
                "access": []
            },
            {
                "id": 192,
                "key": "Appendix-6.Youth-Notice",
                "title": "Appendix-6.Youth-Notice",
                "generatedBy": "",
                "generatedDateTime": "",
                "isSelected": false,
                "isRequired": false,
                "isInProgress": false,
                "isGenerated": false,
                "documentpath":"https://s3-cjams.s3.us-east-1.amazonaws.com/201800510910%2F1539712276967_Youth-Notice.pdf",
                "access": []
            },
            {
                "id": 193,
                "key": "Appendix-7.Sex-Abuse-Incident-Team-Review",
                "title": "Appendix-7.Sex-Abuse-Incident-Team-Review",
                "generatedBy": "",
                "generatedDateTime": "",
                "isSelected": false,
                "isRequired": false,
                "isInProgress": false,
                "isGenerated": false,
                "documentpath":"https://s3-cjams.s3.us-east-1.amazonaws.com/201800510910%2F1539712466657_Sex-Abuse-Incident-Team-Review.pdf",
                "access": []
            },
            {
                "id": 194,
                "key": "CPS-180-Report-6.2016-RA",
                "title": "CPS-180-Report-6.2016-RA",
                "generatedBy": "",
                "generatedDateTime": "",
                "isSelected": false,
                "isRequired": false,
                "isInProgress": false,
                "isGenerated": false,
                "documentpath":"https://s3-cjams.s3.us-east-1.amazonaws.com/201800510910%2F1539712528063_2016-RA.pdf",
                "access": []
            }
        ]
    },
    {
        "id": 20,
        "key": "group",
        "title": "Client Property Inventory Form",
        "generatedBy": "",
        "generatedDateTime": "",
        "isSelected": false,
        "isRequired": false,
        "isInProgress": false,
        "isGenerated": false,
        "access": [
            "field"
        ],
        "hasGroup": true,
        "documents": [
            {
                "id": 201,
                "key": "Chain-of-Custody-Form",
                "title": "Chain-of-Custody-Form",
                "generatedBy": "",
                "generatedDateTime": "",
                "isSelected": false,
                "isRequired": false,
                "isInProgress": false,
                "isGenerated": false,
                "documentpath":"https://s3-cjams.s3.us-east-1.amazonaws.com/201800510910%2F1539713098985_Chain-of-Custody-Form.pdf",
                "access": []
            },
            {
                "id": 202,
                "key": "Clothing Sheet",
                "title": "Clothing Sheet",
                "generatedBy": "",
                "generatedDateTime": "",
                "isSelected": false,
                "isRequired": false,
                "isInProgress": false,
                "isGenerated": false,
                "documentpath":"https://s3-cjams.s3.us-east-1.amazonaws.com/201800510910%2F1539713151652_Clothing+Sheet.pdf",
                "access": []
            },
            {
                "id": 203,
                "key": "Fund Deposit Form",
                "title": "Fund Deposit Form",
                "generatedBy": "",
                "generatedDateTime": "",
                "isSelected": false,
                "isRequired": false,
                "isInProgress": false,
                "isGenerated": false,
                "documentpath":"https://s3-cjams.s3.us-east-1.amazonaws.com/201800510910%2F1539713191978_Fund+Deposit+Form.pdf",
                "access": []
            },
            {
                "id": 204,
                "key": "Personal-Property-Care-and-Disposition_RF-709-13",
                "title": "Personal-Property-Care-and-Disposition_RF-709-13",
                "generatedBy": "",
                "generatedDateTime": "",
                "isSelected": false,
                "isRequired": false,
                "isInProgress": false,
                "isGenerated": false,
                "documentpath":"https://s3-cjams.s3.us-east-1.amazonaws.com/201800510910%2F1539713232359_Personal-Property-Care-and-Disposition_RF-709-13.pdf",
                "access": []
            },
            {
                "id": 205,
                "key": "Youth Personal Property Form",
                "title": "Youth Personal Property Form",
                "generatedBy": "",
                "generatedDateTime": "",
                "isSelected": false,
                "isRequired": false,
                "isInProgress": false,
                "isGenerated": false,
                "documentpath":"https://s3-cjams.s3.us-east-1.amazonaws.com/201800510910%2F1539713278352_Youth+Personal+Property+Form.pdf",
                "access": []
            }
        ]
    },
    {
        "id": 21,
        "key": "group",
        "title": "Residential Intake(Admission) Interview Questionnaire",
        "generatedBy": "",
        "generatedDateTime": "",
        "isSelected": false,
        "isRequired": false,
        "isInProgress": false,
        "isGenerated": false,
        "access": [
            "field"
        ],
        "hasGroup": true,
        "documents": [
            {
                "id": 211,
                "key": "Appendix-3_Youth-Vulnerability-Assessment-Instrument",
                "title": "Appendix-3_Youth-Vulnerability-Assessment-Instrument",
                "generatedBy": "",
                "generatedDateTime": "",
                "isSelected": false,
                "isRequired": false,
                "isInProgress": false,
                "isGenerated": false,
                "documentpath":"https://s3-cjams.s3.us-east-1.amazonaws.com/201800510910%2F1539714045689_Appendix-3_Youth-Vulnerability-Assessment-Instrument.pdf",
                "access": []
            },
            {
                "id": 212,
                "key": "Chain-of-Custody-Form",
                "title": "Chain-of-Custody-Form",
                "generatedBy": "",
                "generatedDateTime": "",
                "isSelected": false,
                "isRequired": false,
                "isInProgress": false,
                "isGenerated": false,
                "documentpath":"https://s3-cjams.s3.us-east-1.amazonaws.com/201800510910%2F1539714102206_Chain-of-Custody-Form.pdf",
                "access": []
            },
            {
                "id": 213,
                "key": "CMTD DOCS",
                "title": "CMTD DOCS",
                "generatedBy": "",
                "generatedDateTime": "",
                "isSelected": false,
                "isRequired": false,
                "isInProgress": false,
                "isGenerated": false,
                "documentpath":"https://s3-cjams.s3.us-east-1.amazonaws.com/201800510910%2F1539714132314_CMTD+DOCS.pdf",
                "access": []
            },
            {
                "id": 214,
                "key": "DJS-Housing-Classification-Assessment-Tool",
                "title": "DJS-Housing-Classification-Assessment-Tool",
                "generatedBy": "",
                "generatedDateTime": "",
                "isSelected": false,
                "isRequired": false,
                "isInProgress": false,
                "isGenerated": false,
                "documentpath":"https://s3-cjams.s3.us-east-1.amazonaws.com/201800510910%2F1539714159446_DJS-Housing-Classification-Assessment-Tool.pdf",
                "access": []
            },
            {
                "id": 215,
                "key": "DJS-Housing-Classification-Re-Assessment-Tool",
                "title": "DJS-Housing-Classification-Re-Assessment-Tool",
                "generatedBy": "",
                "generatedDateTime": "",
                "isSelected": false,
                "isRequired": false,
                "isInProgress": false,
                "isGenerated": false,
                "documentpath":"https://s3-cjams.s3.us-east-1.amazonaws.com/201800510910%2F1539714197991_DJS-Housing-Classification-Re-Assessment-Tool.pdf",
                "access": []
            },
            {
                "id": 216,
                "key": "Gang-Identification-and-Prevention-Policy_RF-721-17",
                "title": "Gang-Identification-and-Prevention-Policy_RF-721-17",
                "generatedBy": "",
                "generatedDateTime": "",
                "isSelected": false,
                "isRequired": false,
                "isInProgress": false,
                "isGenerated": false,
                "documentpath":"https://s3-cjams.s3.us-east-1.amazonaws.com/201800510910%2F1539714227508_Gang-Identification-and-Prevention-Policy_RF-721-17.pdf",
                "access": []
            },
            {
                "id": 217,
                "key": "Hickey - CMS Orientation Packet for New Youth",
                "title": "Hickey - CMS Orientation Packet for New Youth",
                "generatedBy": "",
                "generatedDateTime": "",
                "isSelected": false,
                "isRequired": false,
                "isInProgress": false,
                "isGenerated": false,
                "documentpath":"https://s3-cjams.s3.us-east-1.amazonaws.com/201800510910%2F1539714255197_Hickey+-+CMS+Orientation+Packet+for+New+Youth.pdf",
                "access": []
            }
        ]
    }
]