[
    { "id": 17, "key": "olm-rcc-license-letter", "title": "DHS License Certificate", "generatedBy": "", "generatedDateTime": "", "isSelected": false, "isRequired": false,  "isInProgress": false,  "isGenerated": false},
    { "id": 18, "key": "djs-rcc-license-certificate", "title": "DJS license certificate", "generatedBy": "", "generatedDateTime": "", "isSelected": false, "isRequired": false,  "isInProgress": false,  "isGenerated": false},
    { "id": 19, "key": "cpa-notice-of-intent-to-revoke", "title": "CPA Notice Of Intent To Revoke", "generatedBy": "", "generatedDateTime": "", "isSelected": false, "isRequired": false,  "isInProgress": false,  "isGenerated": false},
    { "id": 20, "key": "cpa-notice-of-intent-to-suspend", "title": "CPA Notice Of Intent To Suspend", "generatedBy": "", "generatedDateTime": "", "isSelected": false, "isRequired": false,  "isInProgress": false,  "isGenerated": false},
    { "id": 21, "key": "rcc-notice-of-intent-to-revoke", "title": "RCC Notice Of Intent To Revoke", "generatedBy": "", "generatedDateTime": "", "isSelected": false, "isRequired": false,  "isInProgress": false,  "isGenerated": false},
    { "id": 22, "key": "rcc-notice-of-intent-to-suspend", "title": "RCC Notice Of Intent To Suspend", "generatedBy": "", "generatedDateTime": "", "isSelected": false, "isRequired": false,  "isInProgress": false,  "isGenerated": false}
]