 [
     { "id": 16, "key": "intake-process-form", "title": "Intake Process Form", "generatedBy": "", "generatedDateTime": "", "isSelected": false, "isRequired": false,  "isInProgress": false,  "isGenerated": false,  "access":["SCRNW","apcs","field","Intake Worker","Court Liaison Worker"] },
     { "id": 3, "key": "Preintake-Appointment-Letter", "title": "Intake Appointment Letter with Delinquency Process Compliant", "generatedBy": "", "generatedDateTime": "", "isSelected": false, "isRequired": false,  "isInProgress": false,  "isGenerated": false,  "access":["SCRNW","apcs","field","Intake Worker","Court Liaison Worker"] },
     { "id": 5, "key": "Preintake-Complaint-Notification-Letter", "title": "Intake Complaint Notification Letter", "generatedBy": "", "generatedDateTime": "", "isSelected": false, "isRequired": false,  "isInProgress": false,  "isGenerated": false,  "access":["SCRNW","apcs","field", "Intake Worker","Court Liaison Worker"] },
     { "id": 4, "key": "Intake Decision Sheet", "title": "Intake Decision Sheet", "generatedBy": "", "generatedDateTime": "", "isSelected": false, "isRequired": true,  "isInProgress": false,  "isGenerated": false,  "access":["apcs","field", "Intake Worker","Court Liaison Worker"] },
     { "id": 2, "key": "Intake Formal Action Notification Letter", "title": "Intake Formal Action Notification Letter", "generatedBy": "", "generatedDateTime": "", "isSelected": false, "isRequired": true,  "isInProgress": false,  "isGenerated": false,  "access":["apcs","field", "Intake Worker","Court Liaison Worker"] },
     { "id": 1, "key": "Notice of Pre Intake Letter", "title": "Notice of Pre Intake Letter", "generatedBy": "", "generatedDateTime": "", "isSelected": false, "isRequired": false,  "isInProgress": false,  "isGenerated": false,  "access":[] },
    { "id": 6, "key": "Preintake-Victim-Impact-Letter", "title": "Victim Impact Statement", "generatedBy": "", "generatedDateTime": "", "isSelected": false, "isRequired": false,  "isInProgress": false,  "isGenerated": false, "access":["field","Court Liaison Worker"]  },
    { "id": 7, "key": "Post-Disposition-Service-Referral-Letter", "title": "Post-Disposition-Service-Referral-Letter", "generatedBy": "", "generatedDateTime": "", "isSelected": false, "isRequired": false,  "isInProgress": false,  "isGenerated": false,  "access":[ ] },
    { "id": 8, "key": "Post-Disposition-TSP-Certofimp-Letter", "title": "Post-Disposition-TSP-Certofimp-Letter", "generatedBy": "", "generatedDateTime": "", "isSelected": false, "isRequired": false,  "isInProgress": false,  "isGenerated": false,  "access":[] },

    { "id": 11, "key": "Notice-of-Intake-Decision", "title": "Notice-of-Intake-Decision", "generatedBy": "", "generatedDateTime": "", "isSelected": false, "isRequired": false,  "isInProgress": false,  "isGenerated": false,  "access":[] },
    { "id": 12, "key": "Office-Visit-Appointment-Letter", "title": "Office Visit Appointment Letter", "generatedBy": "", "generatedDateTime": "", "isSelected": false, "isRequired": false,  "isInProgress": false,  "isGenerated": false,  "access":["field"] },
    { "id": 13, "key": "Youth-Orientation-Form", "title": "Youth-Orientation-Form", "generatedBy": "", "generatedDateTime": "", "isSelected": false, "isRequired": false,  "isInProgress": false,  "isGenerated": false, "access":["field"] },
    { "id": 14, "key": "Youth-Face-Sheet", "title": "Youth Face Sheet", "generatedBy": "", "generatedDateTime": "", "isSelected": false, "isRequired": false,  "isInProgress": false,  "isGenerated": false,  "access":["field","Court Liaison Worker"] },
    { "id": 15, "key": "Waiver", "title": "Waiver", "generatedBy": "", "generatedDateTime": "", "isSelected": false, "isRequired": false,  "isInProgress": false,  "isGenerated": false,  "access":[] }
]
